{
	"aircraft": [
		"AN-124-100",
		"Astra SPX",
		"B747-400",
		"B747-400 SF",
		"B747-412(BDSF)",
		"B747-412F",
		"B747-428 BCF",
		"B747-83QF",
		"B747-8F",
		"B767-241",
		"BAE Jetstream 3201 (JS32)",
		"Beechcraft 300 (Super King Air 300)",
		"Beechcraft A36 Bonanza",
		"Bell 412",
		"Bombardier BD-100-1A10 (CL 300)",
		"Bombardier CL-600-2A12 (CL-601)",
		"Bombardier CL-600-2B16",
		"Bombardier CRJ200",
		"C767-300",
		"Cessna 402",
		"Cessna 500 (Citation I)",
		"Cessna 510 (Citation Mustang)",
		"Cessna 525",
		"Cessna 525",
		"Cessna 525 (Citation M2)",
		"Cessna 525A",
		"Cessna 525A (Citation CJ2)",
		"Cessna 525B (Citation CJ3)",
		"Cessna 550",
		"Cessna 550 (Citation Bravo)",
		"Cessna 550 (Citation II)",
		"Cessna 550B (Citation Bravo)",
		"Cessna 560",
		"Cessna 560 (Citation V Ultra)",
		"Cessna 560 (Citation V)",
		"Cessna 560XL (Citation Excel)",
		"Cessna 680 (Citation Sovereign)",
		"Cessna 750 (Citation X)",
		"Cessna S550 (Citation S/II)",
		"Commander 690B",
		"Commander 690D",
		"Dassault Falcon 2000",
		"Dassault Falcon 50",
		"Dassault Falcon 900",
		"Embraer C-99A (EMB-145ER)",
		"Embraer EMB-120RT",
		"Embraer EMB-135BJ - Legacy 600",
		"Embraer EMB-500",
		"Embraer ERJ-145LR",
		"Fairchild SA226-T(B)",
		"Gulfstream G-IV",
		"Gulfstream GIV-X (G450)",
		"Gulfstream G-V",
		"Gulfstream GVI (G650)",
		"Gulfstream GV-SP (G550)",
		"Gulfstream III (G-1159A)",
		"Hawker 400A",
		"Hawker 800",
		"Hawker 800A",
		"IAI 1124 Westwind",
		"IAI 1125 Astra",
		"IAI Astra SPX",
		"IAI Gulfstream G200",
		"IL-62MF",
		"Learjet 25",
		"Learjet 31",
		"Learjet 35",
		"Learjet 45",
		"Learjet 55",
		"Learjet 60",
		"Piper PA-31T Cheyenne",
		"Piper PA-31T Cheyenne I",
		"Piper PA-31T2 Cheyenne II",
		"Quest Kodiak 100",
		"Twin Commander 690A",
		"Twin Commander 690D (AC900)"
	]
}
